…
### Civilize Data
In order to make easy to read, we have named column names. 
```{r}
#column names for raw data
colnames(raw_data) <- c("brand_name","auto_dom","auto_imp","auto_total","comm_dom","comm_imp","comm_total","total_dom","total_imp","total_total")
#replace NA values with 0 and add year/month cols
car_data_nov_17 <- raw_data %>% mutate_if(is.numeric,funs(ifelse(is.na(.),0,.)))%>% mutate(year=2017,month=11)
print(car_data_nov_17,width=Inf)
```

# A tibble: 45 x 12
   brand_name   auto_dom auto_imp auto_total comm_dom comm_imp comm_total total_dom total_imp total_total  year month
   <chr>           <dbl>    <dbl>      <dbl>    <dbl>    <dbl>      <dbl>     <dbl>     <dbl>       <dbl> <dbl> <dbl>
 1 ALFA ROMEO          0       53         53        0        0          0         0        53          53  2017    11
 2 ASTON MARTIN        0        2          2        0        0          0         0         2           2  2017    11
 3 AUDI                0     3189       3189        0        0          0         0      3189        3189  2017    11
 4 BENTLEY             0        2          2        0        0          0         0         2           2  2017    11
 5 BMW                 0     4611       4611        0        0          0         0      4611        4611  2017    11
 6 CHERY               0        0          0        0        0          0         0         0           0  2017    11
 7 CITROEN             0     2017       2017      274      711        985       274      2728        3002  2017    11
 8 DACIA               0     4745       4745        0      747        747         0      5492        5492  2017    11
 9 DS                  0       42         42        0        0          0         0        42          42  2017    11
10 FERRARI             0        2          2        0        0          0         0         2           2  2017    11
# ... with 35 more rows
…
